Análisis sectorial agrícola en España
…
# Filtrar datos para el año 2023
# Filtrar datos para el año 2023
data_filtered <- datos_prod %>%
  filter(!grepl(" ", geo))  # Eliminar filas donde 'Geo' tiene un espacio
data_2023 <- data_filtered %>%
  filter(TIME_PERIOD == max(TIME_PERIOD, na.rm = TRUE)) %>%                # Filtrar datos para 2023
  group_by(geo) %>%                       # Agrupar por países
  summarise(Total_Production = sum(OBS_VALUE, na.rm = TRUE)) %>% # Sumar producción
  arrange(Total_Production)               # Ordenar por producción

# Verificar los datos procesados
print(data_2023)

# A tibble: 30 × 2
   geo        Total_Production
   <chr>                 <dbl>
 1 Malta                  139.
 2 Luxembourg             602.
 3 Iceland                604.
 4 Cyprus                 887.
 5 Estonia               1313.
 6 Slovenia              1581.
 7 Latvia                1866.
 8 Croatia               2840.
 9 Slovakia              2914.
10 Lithuania             4379.
# ℹ 20 more rows
…
